DATA 608: Assignment 1
…
library(dplyr)

ny$Industry = with(ny, reorder(Industry, Employees, mean))

ny.summary <- ny %>%
  group_by(Industry) %>%
  summarise(
    emp_mean = mean(Employees),
    emp_min = min(Employees),
    emp_max = max(Employees)
  )

ny.summary

## # A tibble: 25 x 4
##    Industry                   emp_mean emp_min emp_max
##    <fct>                         <dbl>   <int>   <int>
##  1 Government Services            17        17      17
##  2 Real Estate                    18.2       7      30
##  3 Retail                         24.8       3      75
##  4 Logistics & Transportation     29.5       1      70
##  5 Insurance                      32.5      15      50
##  6 Computer Hardware              44        44      44
##  7 Engineering                    53.5      11      94
##  8 Advertising & Marketing        58.4       2     270
##  9 Education                      59.9      19     200
## 10 Construction                   61        10     219
## #  with 15 more rows
…
